impact = 7
manoeverability = 0
nimbility = 0
thrust = 0
shield = 160
rot.theta = 90
rot.gamma = 70
zoom = 1.2
ammo = 0
dualshot = false
cubex = 0.84
cubey = 0.55
cubez = 0.84


# ADD MORE (Search&Replace this text)
