impact = 20
manoeverability = 0.48
nimbility = 0
thrust = 0
shield = 3000
rot.theta = 90
rot.gamma = 70
zoom = 1.5
ammo = 0
dualshot = false
cubex = 1.5
cubey = 0.75
cubez = 1.5


# ADD MORE (Search&Replace this text)
