impact = 7
manoeverability = 0
nimbility = 0.86
thrust = 0.02
shield = 50
rot.theta = 0.03
rot.gamma = 0
zoom = 0.35
ammo = 0
dualshot = false
cubex = 0.25
cubey = 0.21
cubez = 0.25


# ADD MORE (Search&Replace this text)
