impact = 2
manoeverability = 0.52
nimbility = 0.95
thrust = 0.33
shield = 120
rot.theta = 90
rot.gamma = 70
zoom = 0.4
flares = 25
chaffs = 25
ammo = 1400
dualshot = true
cube = 0.24
racks = 4
rackload.0 = 700
rackload.1 = 1600
rackload.2 = 1600
rackload.3 = 700


# ADD MORE (Search&Replace this text)
